{
  "@graph": [
    {
      "@id": "contract_1234",
      "@type": "otObject",
      "identifiers": [
        {
          "@type": "id",
          "@value": "contract_1234"
        },{
          "@type": "contract",
          "@value": "1234"
        }
      ],
      "properties": {
        "timestamp": "${timestamp}",
        "consumer_network": "polygon",
        "producer_network": "ethereum",
        "price": 10000,
        "quantity": 2,
        "delivery_interval": 3,
        "product_name": "Apple"
      },
      "relations": []
    }
  ]
}



